\relax 
\@writefile{lof}{\contentsline {figure}{\numberline {1}{\ignorespaces Residual\relax }}{1}}
\providecommand*\caption@xref[2]{\@setref\relax\@undefined{#1}}
\newlabel{fig:residual}{{1}{1}}
\newlabel{fig:Ucont}{{2a}{2}}
\newlabel{sub@fig:Ucont}{{a}{2}}
\newlabel{fig:Vcont}{{2b}{2}}
\newlabel{sub@fig:Vcont}{{b}{2}}
\@writefile{lof}{\contentsline {figure}{\numberline {2}{\ignorespaces U, V contours\relax }}{2}}
\newlabel{fig:UVcontours}{{2}{2}}
\@writefile{lof}{\contentsline {figure}{\numberline {3}{\ignorespaces P.\relax }}{3}}
\newlabel{fig:Pcont}{{3}{3}}
\@writefile{lof}{\contentsline {figure}{\numberline {4}{\ignorespaces Numerical $u,v$ at steady state for 3 grid resolutions\relax }}{4}}
\newlabel{fig:numericalAllGrid}{{4}{4}}
\@writefile{lof}{\contentsline {figure}{\numberline {5}{\ignorespaces Skin friction coefficients\relax }}{5}}
\newlabel{fig:skinFriction}{{5}{5}}
\@writefile{toc}{\contentsline {section}{\numberline {A}Fortran Code}{8}}
\newlabel{code:fortran}{{A}{8}}
\@writefile{toc}{\contentsline {section}{\numberline {B}Matlab Code}{18}}
\newlabel{code:matlab}{{B}{18}}
