\relax 
\providecommand*\caption@xref[2]{\@setref\relax\@undefined{#1}}
\newlabel{fig:U250}{{1a}{2}}
\newlabel{sub@fig:U250}{{a}{2}}
\newlabel{fig:V250}{{1b}{2}}
\newlabel{sub@fig:V250}{{b}{2}}
\@writefile{lof}{\contentsline {figure}{\numberline {1}{\ignorespaces U, V contours\relax }}{2}}
\newlabel{fig:UVcontours}{{1}{2}}
\@writefile{lof}{\contentsline {figure}{\numberline {2}{\ignorespaces P.\relax }}{2}}
\newlabel{fig:P250}{{2}{2}}
\newlabel{fig:Uprofiles}{{3a}{3}}
\newlabel{sub@fig:Uprofiles}{{a}{3}}
\newlabel{fig:paperprofiles}{{3b}{3}}
\newlabel{sub@fig:paperprofiles}{{b}{3}}
\@writefile{lof}{\contentsline {figure}{\numberline {3}{\ignorespaces Velocity profile comparison.\relax }}{3}}
\newlabel{fig:Velocity profiles}{{3}{3}}
\newlabel{fig:SL250}{{4a}{4}}
\newlabel{sub@fig:SL250}{{a}{4}}
\newlabel{fig:SLpaper}{{4b}{4}}
\newlabel{sub@fig:SLpaper}{{b}{4}}
\@writefile{lof}{\contentsline {figure}{\numberline {4}{\ignorespaces Streamline comparison\relax }}{4}}
\newlabel{fig:Streamlines}{{4}{4}}
\@writefile{lof}{\contentsline {figure}{\numberline {5}{\ignorespaces Another streamline sample\relax }}{4}}
\newlabel{fig:SLother}{{5}{4}}
\@writefile{toc}{\contentsline {section}{\numberline {A}Fortran Code}{6}}
\@writefile{toc}{\contentsline {section}{\numberline {B}Matlab Code}{19}}
