\relax 
\@writefile{lof}{\contentsline {figure}{\numberline {1}{\ignorespaces Residuals\relax }}{1}}
\providecommand*\caption@xref[2]{\@setref\relax\@undefined{#1}}
\newlabel{fig:residuals}{{1}{1}}
\newlabel{fig:Ucoarse}{{\caption@xref {fig:Ucoarse}{ on input line 36}}{2}}
\newlabel{sub@fig:Ucoarse}{{}{2}}
\newlabel{fig:Vcoarse}{{\caption@xref {fig:Vcoarse}{ on input line 41}}{2}}
\newlabel{sub@fig:Vcoarse}{{}{2}}
\@writefile{lof}{\contentsline {figure}{\numberline {2}{\ignorespaces U, V on coarse grid\relax }}{2}}
\newlabel{fig:UVcoarse}{{2}{2}}
\newlabel{fig:Umed}{{\caption@xref {fig:Umed}{ on input line 52}}{2}}
\newlabel{sub@fig:Umed}{{}{2}}
\newlabel{fig:Vmed}{{\caption@xref {fig:Vmed}{ on input line 57}}{2}}
\newlabel{sub@fig:Vmed}{{}{2}}
\@writefile{lof}{\contentsline {figure}{\numberline {3}{\ignorespaces U, V on coarse grid\relax }}{2}}
\newlabel{fig:UVmed}{{3}{2}}
\newlabel{fig:Ufine}{{\caption@xref {fig:Ufine}{ on input line 68}}{3}}
\newlabel{sub@fig:Ufine}{{}{3}}
\newlabel{fig:Vfine}{{\caption@xref {fig:Vfine}{ on input line 73}}{3}}
\newlabel{sub@fig:Vfine}{{}{3}}
\@writefile{lof}{\contentsline {figure}{\numberline {4}{\ignorespaces U, V on coarse grid\relax }}{3}}
\newlabel{fig:UVfine}{{4}{3}}
\@writefile{lof}{\contentsline {figure}{\numberline {5}{\ignorespaces Skin friction.\relax }}{3}}
\newlabel{fig:skinfriction}{{5}{3}}
\@writefile{toc}{\contentsline {section}{\numberline {A}Fortran Code}{4}}
\@writefile{toc}{\contentsline {section}{\numberline {B}Matlab Code}{17}}
