# Fdb version 3
["pdflatex"] 1402598138 "handwerk_derek_hw4.tex" "handwerk_derek_hw4.pdf" "handwerk_derek_hw4" 1402598139
  "/usr/local/texlive/2013/texmf-dist/tex/context/base/supp-pdf.mkii" 1337017135 71627 94eb9990bed73c364d7f53f960cc8c5b ""
  "/usr/local/texlive/2013/texmf-dist/tex/generic/oberdiek/etexcmds.sty" 1335995445 7612 c47308d923ec19888707b0f1792b326a ""
  "/usr/local/texlive/2013/texmf-dist/tex/generic/oberdiek/ifluatex.sty" 1303254447 7324 11d14f318d865f420e692d4e6c9c18c3 ""
  "/usr/local/texlive/2013/texmf-dist/tex/generic/oberdiek/ifpdf.sty" 1303254447 7140 ece2cc23d9f20e1f53975ac167f42d3e ""
  "/usr/local/texlive/2013/texmf-dist/tex/generic/oberdiek/infwarerr.sty" 1335995445 8253 3bdedc8409aa5d290a2339be6f09af03 ""
  "/usr/local/texlive/2013/texmf-dist/tex/generic/oberdiek/kvdefinekeys.sty" 1335995445 5152 387d9200f396b498d5fd679ae44ed898 ""
  "/usr/local/texlive/2013/texmf-dist/tex/generic/oberdiek/kvsetkeys.sty" 1335995445 14040 8de9f47fabc4ca3bd69b6d795e32751c ""
  "/usr/local/texlive/2013/texmf-dist/tex/generic/oberdiek/ltxcmds.sty" 1335995445 18425 775b341047ce304520cc7c11ca41392e ""
  "/usr/local/texlive/2013/texmf-dist/tex/generic/oberdiek/pdftexcmds.sty" 1335995445 19987 01cb2f3c1d21e5f05711b7fd50b17f2a ""
  "/usr/local/texlive/2013/texmf-dist/tex/latex/amsmath/amsbsy.sty" 1362954379 2412 2d98314dc5be38f455f8890deeb2d091 ""
  "/usr/local/texlive/2013/texmf-dist/tex/latex/amsmath/amsgen.sty" 1362954379 4357 ad30ad08920902fc9b38caf35a3b0496 ""
  "/usr/local/texlive/2013/texmf-dist/tex/latex/amsmath/amsmath.sty" 1362954379 79178 b2e326c351e876df0e5e23df2e02441b ""
  "/usr/local/texlive/2013/texmf-dist/tex/latex/amsmath/amsopn.sty" 1362954379 4082 502152465aedb8f6a3c4b0b7c0fa8ae5 ""
  "/usr/local/texlive/2013/texmf-dist/tex/latex/amsmath/amstext.sty" 1362954379 2637 846ebe982d3549c7ede7ce135456f54a ""
  "/usr/local/texlive/2013/texmf-dist/tex/latex/base/article.cls" 1254151887 20571 b8bd218bf2e18b4f5817ee643cd9c515 ""
  "/usr/local/texlive/2013/texmf-dist/tex/latex/base/size10.clo" 1254151887 9042 248dfba326a1b8733d6bb8e0a3ac1e49 ""
  "/usr/local/texlive/2013/texmf-dist/tex/latex/caption/caption.sty" 1368312746 65148 c61accbd2b9a5316d9be0887ec48d722 ""
  "/usr/local/texlive/2013/texmf-dist/tex/latex/caption/caption3.sty" 1368312746 62748 b02c0dc118f5f35146d37cec569e83b1 ""
  "/usr/local/texlive/2013/texmf-dist/tex/latex/caption/subcaption.sty" 1360019375 4351 ee16013c18d101f9ecb20e53efde17b4 ""
  "/usr/local/texlive/2013/texmf-dist/tex/latex/graphics/graphics.sty" 1254151804 14183 42a8fc761b806986eef292369afc2988 ""
  "/usr/local/texlive/2013/texmf-dist/tex/latex/graphics/graphicx.sty" 1156702488 7882 3bd78469d444e8d494e27cfd7ca92719 ""
  "/usr/local/texlive/2013/texmf-dist/tex/latex/graphics/keyval.sty" 1156702488 2266 7054435e4584a41cf53b0a7ca624d0cb ""
  "/usr/local/texlive/2013/texmf-dist/tex/latex/graphics/trig.sty" 1156702488 3153 c50e6bd54d2dd3933fc52bcf369bec4a ""
  "/usr/local/texlive/2013/texmf-dist/tex/latex/latexconfig/epstopdf-sys.cfg" 1279039959 678 4792914a8f45be57bb98413425e4c7af ""
  "/usr/local/texlive/2013/texmf-dist/tex/latex/latexconfig/graphics.cfg" 1278958963 3563 d35e897cae3b8c6848f6677b73370b54 ""
  "/usr/local/texlive/2013/texmf-dist/tex/latex/oberdiek/epstopdf-base.sty" 1303254447 12029 04d7fdf76e0464c23b5aa3a727952d7c ""
  "/usr/local/texlive/2013/texmf-dist/tex/latex/oberdiek/grfext.sty" 1335995445 7075 bd0c34fbf1ae8fd1debd2a554e41b2d5 ""
  "/usr/local/texlive/2013/texmf-dist/tex/latex/oberdiek/kvoptions.sty" 1335995445 22417 c74ff4af6a1aa2b65d1924020edbbe11 ""
  "/usr/local/texlive/2013/texmf-dist/tex/latex/pdftex-def/pdftex.def" 1306616590 55368 3c8a0d99822330f2dfabc0dfb09ce897 ""
  "/usr/local/texlive/2013/texmf-dist/tex/latex/psfrag/psfrag.sty" 1137110621 7349 04574cd13971edb76f06a9e2e9a108d9 ""
  "handwerk_derek_hw4.aux" 1402598138 1510 4fda0f39f2c0ad86217dc5b4a29a266b ""
  "handwerk_derek_hw4.tex" 1402598138 38319 e3cb39d17eece4c60a98d0098e1f8dbe ""
  "plots/Ucoarse.png" 1402594454 14094 099058ce776a5f6aabce8b111001760b ""
  "plots/Ufine.png" 1402594467 14024 3546349f23a89fabc660556eb4d6f726 ""
  "plots/Umed.png" 1402594549 16109 c9d9563a54f9f5069f6c59e42718a288 ""
  "plots/Vcoarse.png" 1402594538 15578 4f8c8bc17636dd9ddb1ff83cc3740918 ""
  "plots/Vfine.png" 1402594490 18512 ffa922e8f994aa203466abf1bf3c74af ""
  "plots/Vmed.png" 1402594528 16017 25f7e877a1d63d4d7bea510abd9248d4 ""
  "plots/frictionCoeff.png" 1402595339 4223 420c975c1c51b31830cffde948476346 ""
  "plots/residuals.png" 1402595018 6949 f22f9c8779befe06e90fd9c573cc1bf3 ""
  (generated)
  "handwerk_derek_hw4.log"
  "handwerk_derek_hw4.aux"
  "handwerk_derek_hw4.pdf"
